﻿{
  "Group": "Columbus",
  "FriendlyName": "Product Quickview",
  "SystemName": "Product.Quickview",
  "Version": "1.0",
  "SupportedVersions": [ "4.10" ],
  "Author": "Columbus CX team",
  "DisplayOrder": 1,
  "FileName": "Nop.Plugin.Product.Quickview.dll",
  "Description": "This plugin displays product quick view"
}